<?xml version="1.0" encoding="utf-8"?>
<!-- Generator: Adobe Illustrator 23.0.1, SVG Export Plug-In . SVG Version: 6.00 Build 0)  -->
<svg version="1.1" id="Camada_1" xmlns="http://www.w3.org/2000/svg" xmlns:xlink="http://www.w3.org/1999/xlink" x="0px" y="0px"
	 viewBox="0 0 52 59" style="enable-background:new 0 0 52 59;" xml:space="preserve">
<style type="text/css">
	.st0{fill:#000333;}
</style>
<path class="st0" d="M25.2,7.5l1.4,6.8h17.9v20.5H33L31.7,28H6.9V7.5H25.2z M30.8,0.7H0.1v58.1h6.8V34.8H26l1.4,6.8h23.9V7.5H32.2
	L30.8,0.7z"/>
</svg>
