<svg width="177" height="118" viewBox="0 0 177 118" fill="none" xmlns="http://www.w3.org/2000/svg">
<ellipse opacity="0.05" cx="88.5" cy="109.218" rx="88.5" ry="7.94314" fill="#333333"/>
<path d="M125.34 49.7944H101.826V50.0631C100.13 50.6724 98.9026 52.2671 98.9026 54.1664V98.7645C98.9026 103.208 95.2753 106.81 90.7998 106.81H77.5718V111.182H117.238C124.131 111.182 129.726 105.627 129.726 98.7824V54.1664C129.744 51.7474 127.777 49.7944 125.34 49.7944Z" fill="#CCDBFF"/>
<path d="M117.238 111.182H104.01V106.81H117.238C121.713 106.81 125.341 103.208 125.341 98.7645V54.1664C125.341 51.7474 127.308 49.7944 129.744 49.7944V98.7645C129.744 105.627 124.149 111.182 117.238 111.182Z" fill="#8CADFF"/>
<path d="M42.3169 87.2133H173.683C175.512 87.2133 177 85.791 177 84.0432V3.31388C177 1.56605 175.512 0.143798 173.683 0.143798H42.3169C40.4881 0.143798 39 1.56605 39 3.31388V84.0432C39.0179 85.791 40.4881 87.2133 42.3169 87.2133Z" fill="#8CADFF"/>
<path d="M39.2234 91.3643H171.449C173.29 91.3643 174.788 89.8771 174.788 88.0494V3.31484C174.788 1.4872 173.29 0 171.449 0H39.2234C37.3826 0 35.8848 1.4872 35.8848 3.31484V88.0494C35.9028 89.8771 37.3826 91.3643 39.2234 91.3643Z" fill="#CCDBFF"/>
<path d="M171.339 87.6046L171.339 3.42542L39.6727 3.42542L39.6727 87.6046L171.339 87.6046Z" fill="#37384F"/>
<path d="M99.9716 102.958H35.6184C35.5101 102.976 35.4018 102.976 35.2935 102.994L10.8768 106.792C9.79405 106.953 9 107.885 9 108.978C9 110.197 9.99254 111.182 11.2197 111.182H99.9716C101.163 111.128 102.119 110.161 102.119 108.978V105.18C102.101 103.943 101.145 102.994 99.9716 102.958Z" fill="#CCDBFF"/>
<path d="M99.5387 102.975L75.122 106.774C74.0392 106.935 73.2451 107.867 73.2451 108.96C73.2451 110.178 74.2377 111.164 75.4648 111.164H99.8815C101.109 111.164 102.101 110.178 102.101 108.96V105.161C102.101 103.799 100.892 102.76 99.5387 102.975Z" fill="#8CADFF"/>
<path d="M137.323 44.0784H73.3491V45.0998H137.323V44.0784Z" fill="#CCDBFF"/>
<path d="M122.706 22.0571H87.9849V23.0785H122.706V22.0571Z" fill="#CCDBFF"/>
<path d="M119.097 24.5836H93.3989V25.6049H119.097V24.5836Z" fill="#CCDBFF"/>
<path d="M137.323 47.5187H73.3491V48.5401H137.323V47.5187Z" fill="#CCDBFF"/>
<path d="M137.323 50.9769H73.3491V51.9983H137.323V50.9769Z" fill="#CCDBFF"/>
<path d="M137.323 54.4172H73.3491V55.4385H137.323V54.4172Z" fill="#CCDBFF"/>
<path d="M137.323 58.0546H73.3491V59.0759H137.323V58.0546Z" fill="#CCDBFF"/>
<path d="M137.323 61.4948H73.3491V62.5161H137.323V61.4948Z" fill="#CCDBFF"/>
<path d="M137.323 64.953H73.3491V65.9743H137.323V64.953Z" fill="#CCDBFF"/>
<path d="M137.323 68.3933H73.3491V69.4146H137.323V68.3933Z" fill="#CCDBFF"/>
<path d="M138.515 35.639H72.1763V40.1186H138.515V35.639Z" fill="#CCDBFF"/>
<path d="M171.16 3.42236H39.6562V12.3097H171.16V3.42236Z" fill="#DFE1E5"/>
<path d="M59.543 6.12793H42.8682V8.94107H59.543V6.12793Z" fill="#37384F"/>
<path d="M112.004 6.41467H95.3291V9.22781H112.004V6.41467Z" fill="#37384F"/>
<path d="M144.559 7.61517H132.468V8.40357H144.559V7.61517Z" fill="#37384F"/>
<path d="M157.842 7.61517H145.75V8.40357H157.842V7.61517Z" fill="#37384F"/>
<path d="M165.385 10.4283C166.84 10.4283 168.02 9.25707 168.02 7.81227C168.02 6.36747 166.84 5.19623 165.385 5.19623C163.93 5.19623 162.75 6.36747 162.75 7.81227C162.75 9.25707 163.93 10.4283 165.385 10.4283Z" fill="#37384F"/>
</svg>
